Project 2: Data Mining, Classification, Prediction
…
Mining, Classification, Prediction

Kelsey Garcia - kg29435

Introduction

The dataset used for this project contains the hurricanes that have impacted the United States since the year 1950 to today. The variables included in this dataset are as follows: name gives the name given to the hurricane, year which represents the year of landfall, winds_mph which represents the maximum wind speeds along the US coastline during landfall in mph, pressure_mb represents the atmospheric during landfall in millibars, deaths represents the number of deaths caused by the hurricane, gender_name is a binary character variable which represents the gender of the name of the hurricane, and total_damage represents the total property damage in 2014 USDs.

This data was particularly interesting to me because this data was first studied to determine whether or not female-gendered named hurricanes were taken less seriously by the US public and therefore resulted in higher amounts of property damage.

library(readr)
hurricanes <- read_csv("~/project2/hurricNamed.csv")
hurricanes

## # A tibble: 94 x 13
##    X1    Name   Year LF.WindsMPH LF.PressureMB LF.times BaseDamage NDAM2014
##    <chr> <chr> <dbl>       <dbl>         <dbl>    <dbl>      <dbl>    <dbl>
##  1 Easy Easy   1950         120           958        1       3.3      1870
##  2 King King   1950         130           955        1      28        6030
##  3 Able Able   1952          85           985        1       2.75      170
##  4 Barb Barb  1953          85           987        1       1          65
##  5 Flor Flor  1953          85           985        1       0.2        18
##  6 Caro Carol  1954         120           960        2     460.      21375
##  7 Edna Edna   1954         120           954        1      40        3520
##  8 Haze Hazel  1954         145           938        1     281       28500
##  9 Conn Conn  1955         120           962        1      40        2270
## 10 Dian Diane  1955          85           987        1     200       17250
## #  with 84 more rows, and 5 more variables: AffectedStates <chr>,
## #   firstLF <date>, deaths <dbl>, mf <chr>, BaseDam2014 <dbl>
…
